## Interface: 40000
## Title: Sekten Buff Snapshot
## Notes: Takes a snapshot with buffs => CSV.
## Author: Glitterapa & Corn
## Version: 0.2
## SavedVariables: SektenBuffSnapshot_DB

embeds.xml

Core.lua